…
Caused by:
  Process `GWAS (1)` terminated with an error exit status (1)

Command executed:

  Rscript -e 'memory.limit(size=75000); source(file=system.file("exec/run_GWAS.R", package="mousegwas"))' -i gemma_input.csv -y gemma_config.yaml --basedir outdir -d 10 --MDA

Command exit status:
  1

Command output:
  [1] Inf
  [1] "Working directory: outdir"
  # A tibble: 1,981 x 98
     NetworkFilename Strain MouseID Sex   Cage  DOB        Box   TestDate   Weight
     <chr>           <chr>  <chr>   <chr> <chr> <date>     <chr> <date>      <dbl>
   1 LL5-B2B/2015-1… C3H/H… LL5-3_… M     <NA>  2015-10-20 LL5-3 2015-12-21   24.7
   2 LL4-B2B/2016-0… BTBR … LL4-2_… F     <NA>  2015-12-22 LL4-2 2016-02-22   23.2
   3 LL5-B2B/2015-1… C3H/H… LL5-4_… M     <NA>  2015-10-20 LL5-4 2015-12-21   25.7
   4 LL5-B2B/2016-0… BTBR … LL5-4_… M     <NA>  2015-12-22 LL5-4 2016-02-22   29  
   5 LL3-B2B/2016-0… CAST/… LL3-1_… M     <NA>  2015-11-17 LL3-1 2016-01-19   14.8
   6 LL3-B2B/2016-0… B6AF1… LL3-2_… F     <NA>  2015-12-22 LL3-2 2016-02-23   19.3
   7 LL4-B2B/2016-0… BTBR … LL4-4_… F     <NA>  2015-12-22 LL4-4 2016-02-22   25  
   8 LL5-B2B/2016-0… BTBR … LL5-2_… M     <NA>  2015-12-22 LL5-2 2016-02-22   31.6
   9 LL5-B2B/2015-1… C3H/H… LL5-1_… M     <NA>  2015-10-20 LL5-1 2015-12-21   24.8
  10 LL4-B2B/2016-0… C57BL… LL4-2_… F     <NA>  2015-12-29 LL4-2 2016-03-01   22.6
  # … with 1,971 more rows, and 89 more variables: TestTime <chr>, TestNum <dbl>,
  #   Comments <chr>, Shipped <chr>, Tester <chr>, RoomOrigin <chr>,
  #   ShipDate <date>, TestingSheetLink <chr>, TestingSheetLinkPath <chr>,
  #   TestingSheetName <chr>, CoatColor <chr>, LightIntensity <chr>,
  #   WhiteNoise <lgl>, DrugDosed <chr>, DrugDosage <dbl>, DontUseOFA <lgl>,
  #   DontUsePSY <lgl>, TestAssay <chr>, TestAssayNotes <lgl>, TestDataset <chr>,
  #   TestID <chr>, MovieHyperlink <chr>, networkMovieFound <lgl>,
  #   TimestampsFound <lgl>, DistExportFound <lgl>, networkEllfitFound <lgl>,
  #   networkGroomFound <lgl>, PredictedBaselineLength <dbl>,
…
Caused by:
  Process `GWAS (1)` terminated with an error exit status (1)

Command executed:

  Rscript -e 'memory.limit(size=75000); source(file=system.file("exec/run_GWAS.R", package="mousegwas"))' -i gemma_input.csv -y gemma_config.yaml --basedir outdir -d 10 --MDA

Command exit status:
  1

Command output:
  [1] Inf
  [1] "Working directory: outdir"
  # A tibble: 1,981 x 98
     NetworkFilename Strain MouseID Sex   Cage  DOB        Box   TestDate   Weight
     <chr>           <chr>  <chr>   <chr> <chr> <date>     <chr> <date>      <dbl>
   1 LL5-B2B/2015-1… C3H/H… LL5-3_… M     <NA>  2015-10-20 LL5-3 2015-12-21   24.7
   2 LL4-B2B/2016-0… BTBR … LL4-2_… F     <NA>  2015-12-22 LL4-2 2016-02-22   23.2
   3 LL5-B2B/2015-1… C3H/H… LL5-4_… M     <NA>  2015-10-20 LL5-4 2015-12-21   25.7
   4 LL5-B2B/2016-0… BTBR … LL5-4_… M     <NA>  2015-12-22 LL5-4 2016-02-22   29  
   5 LL3-B2B/2016-0… CAST/… LL3-1_… M     <NA>  2015-11-17 LL3-1 2016-01-19   14.8
   6 LL3-B2B/2016-0… B6AF1… LL3-2_… F     <NA>  2015-12-22 LL3-2 2016-02-23   19.3
   7 LL4-B2B/2016-0… BTBR … LL4-4_… F     <NA>  2015-12-22 LL4-4 2016-02-22   25  
   8 LL5-B2B/2016-0… BTBR … LL5-2_… M     <NA>  2015-12-22 LL5-2 2016-02-22   31.6
   9 LL5-B2B/2015-1… C3H/H… LL5-1_… M     <NA>  2015-10-20 LL5-1 2015-12-21   24.8
  10 LL4-B2B/2016-0… C57BL… LL4-2_… F     <NA>  2015-12-29 LL4-2 2016-03-01   22.6
  # … with 1,971 more rows, and 89 more variables: TestTime <chr>, TestNum <dbl>,
  #   Comments <chr>, Shipped <chr>, Tester <chr>, RoomOrigin <chr>,
  #   ShipDate <date>, TestingSheetLink <chr>, TestingSheetLinkPath <chr>,
  #   TestingSheetName <chr>, CoatColor <chr>, LightIntensity <chr>,
  #   WhiteNoise <lgl>, DrugDosed <chr>, DrugDosage <dbl>, DontUseOFA <lgl>,
  #   DontUsePSY <lgl>, TestAssay <chr>, TestAssayNotes <lgl>, TestDataset <chr>,
  #   TestID <chr>, MovieHyperlink <chr>, networkMovieFound <lgl>,
  #   TimestampsFound <lgl>, DistExportFound <lgl>, networkEllfitFound <lgl>,
  #   networkGroomFound <lgl>, PredictedBaselineLength <dbl>,
…
Caused by:
  Process `GWAS (1)` terminated with an error exit status (1)

Command executed:

  Rscript -e 'memory.limit(size=75000); source(file=system.file("exec/run_GWAS.R", package="mousegwas"))' -i gemma_input.csv -y gemma_config.yaml --basedir outdir -d 10 --MDA

Command exit status:
  1

Command output:
  [1] Inf
  [1] "Working directory: outdir"
  # A tibble: 1,981 x 98
     NetworkFilename Strain MouseID Sex   Cage  DOB        Box   TestDate   Weight
     <chr>           <chr>  <chr>   <chr> <chr> <date>     <chr> <date>      <dbl>
   1 LL5-B2B/2015-1… C3H/H… LL5-3_… M     <NA>  2015-10-20 LL5-3 2015-12-21   24.7
   2 LL4-B2B/2016-0… BTBR … LL4-2_… F     <NA>  2015-12-22 LL4-2 2016-02-22   23.2
   3 LL5-B2B/2015-1… C3H/H… LL5-4_… M     <NA>  2015-10-20 LL5-4 2015-12-21   25.7
   4 LL5-B2B/2016-0… BTBR … LL5-4_… M     <NA>  2015-12-22 LL5-4 2016-02-22   29  
   5 LL3-B2B/2016-0… CAST/… LL3-1_… M     <NA>  2015-11-17 LL3-1 2016-01-19   14.8
   6 LL3-B2B/2016-0… B6AF1… LL3-2_… F     <NA>  2015-12-22 LL3-2 2016-02-23   19.3
   7 LL4-B2B/2016-0… BTBR … LL4-4_… F     <NA>  2015-12-22 LL4-4 2016-02-22   25  
   8 LL5-B2B/2016-0… BTBR … LL5-2_… M     <NA>  2015-12-22 LL5-2 2016-02-22   31.6
   9 LL5-B2B/2015-1… C3H/H… LL5-1_… M     <NA>  2015-10-20 LL5-1 2015-12-21   24.8
  10 LL4-B2B/2016-0… C57BL… LL4-2_… F     <NA>  2015-12-29 LL4-2 2016-03-01   22.6
  # … with 1,971 more rows, and 89 more variables: TestTime <chr>, TestNum <dbl>,
  #   Comments <chr>, Shipped <chr>, Tester <chr>, RoomOrigin <chr>,
  #   ShipDate <date>, TestingSheetLink <chr>, TestingSheetLinkPath <chr>,
  #   TestingSheetName <chr>, CoatColor <chr>, LightIntensity <chr>,
  #   WhiteNoise <lgl>, DrugDosed <chr>, DrugDosage <dbl>, DontUseOFA <lgl>,
  #   DontUsePSY <lgl>, TestAssay <chr>, TestAssayNotes <lgl>, TestDataset <chr>,
  #   TestID <chr>, MovieHyperlink <chr>, networkMovieFound <lgl>,
  #   TimestampsFound <lgl>, DistExportFound <lgl>, networkEllfitFound <lgl>,
  #   networkGroomFound <lgl>, PredictedBaselineLength <dbl>,
…
Caused by:
  Process `GWAS (1)` terminated with an error exit status (1)

Command executed:

  Rscript -e 'memory.limit(size=75000); source(file=system.file("exec/run_GWAS.R", package="mousegwas"))' -i gemma_input.csv -y gemma_config.yaml --basedir outdir -d 10 --MDA

Command exit status:
  1

Command output:
  [1] Inf
  [1] "Working directory: outdir"
  # A tibble: 1,981 x 98
     NetworkFilename Strain MouseID Sex   Cage  DOB        Box   TestDate   Weight
     <chr>           <chr>  <chr>   <chr> <chr> <date>     <chr> <date>      <dbl>
   1 LL5-B2B/2015-1… C3H/H… LL5-3_… M     <NA>  2015-10-20 LL5-3 2015-12-21   24.7
   2 LL4-B2B/2016-0… BTBR … LL4-2_… F     <NA>  2015-12-22 LL4-2 2016-02-22   23.2
   3 LL5-B2B/2015-1… C3H/H… LL5-4_… M     <NA>  2015-10-20 LL5-4 2015-12-21   25.7
   4 LL5-B2B/2016-0… BTBR … LL5-4_… M     <NA>  2015-12-22 LL5-4 2016-02-22   29  
   5 LL3-B2B/2016-0… CAST/… LL3-1_… M     <NA>  2015-11-17 LL3-1 2016-01-19   14.8
   6 LL3-B2B/2016-0… B6AF1… LL3-2_… F     <NA>  2015-12-22 LL3-2 2016-02-23   19.3
   7 LL4-B2B/2016-0… BTBR … LL4-4_… F     <NA>  2015-12-22 LL4-4 2016-02-22   25  
   8 LL5-B2B/2016-0… BTBR … LL5-2_… M     <NA>  2015-12-22 LL5-2 2016-02-22   31.6
   9 LL5-B2B/2015-1… C3H/H… LL5-1_… M     <NA>  2015-10-20 LL5-1 2015-12-21   24.8
  10 LL4-B2B/2016-0… C57BL… LL4-2_… F     <NA>  2015-12-29 LL4-2 2016-03-01   22.6
  # … with 1,971 more rows, and 89 more variables: TestTime <chr>, TestNum <dbl>,
  #   Comments <chr>, Shipped <chr>, Tester <chr>, RoomOrigin <chr>,
  #   ShipDate <date>, TestingSheetLink <chr>, TestingSheetLinkPath <chr>,
  #   TestingSheetName <chr>, CoatColor <chr>, LightIntensity <chr>,
  #   WhiteNoise <lgl>, DrugDosed <chr>, DrugDosage <dbl>, DontUseOFA <lgl>,
  #   DontUsePSY <lgl>, TestAssay <chr>, TestAssayNotes <lgl>, TestDataset <chr>,
  #   TestID <chr>, MovieHyperlink <chr>, networkMovieFound <lgl>,
  #   TimestampsFound <lgl>, DistExportFound <lgl>, networkEllfitFound <lgl>,
  #   networkGroomFound <lgl>, PredictedBaselineLength <dbl>,
…
Caused by:
  Process `GWAS (1)` terminated with an error exit status (1)

Command executed:

  Rscript -e 'memory.limit(size=75000); source(file=system.file("exec/run_GWAS.R", package="mousegwas"))' -i gemma_input.csv -y gemma_config.yaml --basedir outdir -d 10 --MDA

Command exit status:
  1

Command output:
  [1] Inf
  [1] "Working directory: outdir"
  # A tibble: 1,981 x 98
     NetworkFilename Strain MouseID Sex   Cage  DOB        Box   TestDate   Weight
     <chr>           <chr>  <chr>   <chr> <chr> <date>     <chr> <date>      <dbl>
   1 LL5-B2B/2015-1… C3H/H… LL5-3_… M     <NA>  2015-10-20 LL5-3 2015-12-21   24.7
   2 LL4-B2B/2016-0… BTBR … LL4-2_… F     <NA>  2015-12-22 LL4-2 2016-02-22   23.2
   3 LL5-B2B/2015-1… C3H/H… LL5-4_… M     <NA>  2015-10-20 LL5-4 2015-12-21   25.7
   4 LL5-B2B/2016-0… BTBR … LL5-4_… M     <NA>  2015-12-22 LL5-4 2016-02-22   29  
   5 LL3-B2B/2016-0… CAST/… LL3-1_… M     <NA>  2015-11-17 LL3-1 2016-01-19   14.8
   6 LL3-B2B/2016-0… B6AF1… LL3-2_… F     <NA>  2015-12-22 LL3-2 2016-02-23   19.3
   7 LL4-B2B/2016-0… BTBR … LL4-4_… F     <NA>  2015-12-22 LL4-4 2016-02-22   25  
   8 LL5-B2B/2016-0… BTBR … LL5-2_… M     <NA>  2015-12-22 LL5-2 2016-02-22   31.6
   9 LL5-B2B/2015-1… C3H/H… LL5-1_… M     <NA>  2015-10-20 LL5-1 2015-12-21   24.8
  10 LL4-B2B/2016-0… C57BL… LL4-2_… F     <NA>  2015-12-29 LL4-2 2016-03-01   22.6
  # … with 1,971 more rows, and 89 more variables: TestTime <chr>, TestNum <dbl>,
  #   Comments <chr>, Shipped <chr>, Tester <chr>, RoomOrigin <chr>,
  #   ShipDate <date>, TestingSheetLink <chr>, TestingSheetLinkPath <chr>,
  #   TestingSheetName <chr>, CoatColor <chr>, LightIntensity <chr>,
  #   WhiteNoise <lgl>, DrugDosed <chr>, DrugDosage <dbl>, DontUseOFA <lgl>,
  #   DontUsePSY <lgl>, TestAssay <chr>, TestAssayNotes <lgl>, TestDataset <chr>,
  #   TestID <chr>, MovieHyperlink <chr>, networkMovieFound <lgl>,
  #   TimestampsFound <lgl>, DistExportFound <lgl>, networkEllfitFound <lgl>,
  #   networkGroomFound <lgl>, PredictedBaselineLength <dbl>,
…
Caused by:
  Process `GWAS (1)` terminated with an error exit status (1)

Command executed:

  Rscript -e 'memory.limit(size=75000); source(file=system.file("exec/run_GWAS.R", package="mousegwas"))' -i gemma_input.csv -y gemma_config.yaml --basedir outdir -d 10 --MDA

Command exit status:
  1

Command output:
  [1] Inf
  [1] "Working directory: outdir"
  # A tibble: 1,981 x 98
     NetworkFilename Strain MouseID Sex   Cage  DOB        Box   TestDate   Weight
     <chr>           <chr>  <chr>   <chr> <chr> <date>     <chr> <date>      <dbl>
   1 LL5-B2B/2015-1… C3H/H… LL5-3_… M     <NA>  2015-10-20 LL5-3 2015-12-21   24.7
   2 LL4-B2B/2016-0… BTBR … LL4-2_… F     <NA>  2015-12-22 LL4-2 2016-02-22   23.2
   3 LL5-B2B/2015-1… C3H/H… LL5-4_… M     <NA>  2015-10-20 LL5-4 2015-12-21   25.7
   4 LL5-B2B/2016-0… BTBR … LL5-4_… M     <NA>  2015-12-22 LL5-4 2016-02-22   29  
   5 LL3-B2B/2016-0… CAST/… LL3-1_… M     <NA>  2015-11-17 LL3-1 2016-01-19   14.8
   6 LL3-B2B/2016-0… B6AF1… LL3-2_… F     <NA>  2015-12-22 LL3-2 2016-02-23   19.3
   7 LL4-B2B/2016-0… BTBR … LL4-4_… F     <NA>  2015-12-22 LL4-4 2016-02-22   25  
   8 LL5-B2B/2016-0… BTBR … LL5-2_… M     <NA>  2015-12-22 LL5-2 2016-02-22   31.6
   9 LL5-B2B/2015-1… C3H/H… LL5-1_… M     <NA>  2015-10-20 LL5-1 2015-12-21   24.8
  10 LL4-B2B/2016-0… C57BL… LL4-2_… F     <NA>  2015-12-29 LL4-2 2016-03-01   22.6
  # … with 1,971 more rows, and 89 more variables: TestTime <chr>, TestNum <dbl>,
  #   Comments <chr>, Shipped <chr>, Tester <chr>, RoomOrigin <chr>,
  #   ShipDate <date>, TestingSheetLink <chr>, TestingSheetLinkPath <chr>,
  #   TestingSheetName <chr>, CoatColor <chr>, LightIntensity <chr>,
  #   WhiteNoise <lgl>, DrugDosed <chr>, DrugDosage <dbl>, DontUseOFA <lgl>,
  #   DontUsePSY <lgl>, TestAssay <chr>, TestAssayNotes <lgl>, TestDataset <chr>,
  #   TestID <chr>, MovieHyperlink <chr>, networkMovieFound <lgl>,
  #   TimestampsFound <lgl>, DistExportFound <lgl>, networkEllfitFound <lgl>,
  #   networkGroomFound <lgl>, PredictedBaselineLength <dbl>,
…
Caused by:
  Process `GWAS (1)` terminated with an error exit status (1)

Command executed:

  Rscript -e 'memory.limit(size=75000); source(file=system.file("exec/run_GWAS.R", package="mousegwas"))' -i gemma_input.csv -y gemma_config.yaml --basedir outdir -d 10 --MDA

Command exit status:
  1

Command output:
  [1] Inf
  [1] "Working directory: outdir"
  # A tibble: 1,981 x 98
     NetworkFilename Strain MouseID Sex   Cage  DOB        Box   TestDate   Weight
     <chr>           <chr>  <chr>   <chr> <chr> <date>     <chr> <date>      <dbl>
   1 LL5-B2B/2015-1… C3H/H… LL5-3_… M     <NA>  2015-10-20 LL5-3 2015-12-21   24.7
   2 LL4-B2B/2016-0… BTBR … LL4-2_… F     <NA>  2015-12-22 LL4-2 2016-02-22   23.2
   3 LL5-B2B/2015-1… C3H/H… LL5-4_… M     <NA>  2015-10-20 LL5-4 2015-12-21   25.7
   4 LL5-B2B/2016-0… BTBR … LL5-4_… M     <NA>  2015-12-22 LL5-4 2016-02-22   29  
   5 LL3-B2B/2016-0… CAST/… LL3-1_… M     <NA>  2015-11-17 LL3-1 2016-01-19   14.8
   6 LL3-B2B/2016-0… B6AF1… LL3-2_… F     <NA>  2015-12-22 LL3-2 2016-02-23   19.3
   7 LL4-B2B/2016-0… BTBR … LL4-4_… F     <NA>  2015-12-22 LL4-4 2016-02-22   25  
   8 LL5-B2B/2016-0… BTBR … LL5-2_… M     <NA>  2015-12-22 LL5-2 2016-02-22   31.6
   9 LL5-B2B/2015-1… C3H/H… LL5-1_… M     <NA>  2015-10-20 LL5-1 2015-12-21   24.8
  10 LL4-B2B/2016-0… C57BL… LL4-2_… F     <NA>  2015-12-29 LL4-2 2016-03-01   22.6
  # … with 1,971 more rows, and 89 more variables: TestTime <chr>, TestNum <dbl>,
  #   Comments <chr>, Shipped <chr>, Tester <chr>, RoomOrigin <chr>,
  #   ShipDate <date>, TestingSheetLink <chr>, TestingSheetLinkPath <chr>,
  #   TestingSheetName <chr>, CoatColor <chr>, LightIntensity <chr>,
  #   WhiteNoise <lgl>, DrugDosed <chr>, DrugDosage <dbl>, DontUseOFA <lgl>,
  #   DontUsePSY <lgl>, TestAssay <chr>, TestAssayNotes <lgl>, TestDataset <chr>,
  #   TestID <chr>, MovieHyperlink <chr>, networkMovieFound <lgl>,
  #   TimestampsFound <lgl>, DistExportFound <lgl>, networkEllfitFound <lgl>,
  #   networkGroomFound <lgl>, PredictedBaselineLength <dbl>,
…
